rsID	is_nearest_gene	ENSG	neg_log10_p_val	tissue	value
rs34004019	True	ENSG00000179344	14.4485088434652	Muscle_Skeletal	3.56033740107206e-15
rs34004019	False	ENSG00000196735	35.7917654758245	Muscle_Skeletal	1.61523056503654e-36
rs34004019	False	ENSG00000223534	16.9639073913441	Muscle_Skeletal	1.08665731697029e-17
rs950881	False	ENSG00000115602	6.28515874722566	Lung	5.18610437126533e-07
rs950881	True	ENSG00000115604	5.8498340982754	Brain_Cerebellum	1.41307724104974e-06
rs5743618	True	ENSG00000174125	7.35594127429823	Esophagus_Mucosa	4.406144397708e-08
rs1438673	True	ENSG00000134987	9.50545212459288	Testis	3.12282663891018e-10
rs1438673	False	ENSG00000145777	26.3981545327151	Testis	3.99802464845823e-27
rs1438673	False	ENSG00000253613	0.0200170469438313	Testis	0.954955101351126
rs2428494	False	ENSG00000228432	1.17988484339264	Whole_Blood	0.0660868659314838
rs2428494	False	ENSG00000234745	4.67389963280737	Whole_Blood	2.11885075355784e-05
rs2428494	False	ENSG00000271581	2.4888526881229	Muscle_Skeletal	0.0032444965140238
rs11644510	False	ENSG00000263033	3.74621673202473	Thyroid	0.000179383819935872
rs12939457	False	ENSG00000073605	22.4347893452394	Whole_Blood	3.67460494178746e-23
rs12939457	True	ENSG00000186075	9.42889599406373	Testis	3.72480898237764e-10
rs148505069	True	ENSG00000109471	1.9312068543212	Artery_Coronary	0.0117163718221665
rs13395467	False	ENSG00000236790	2.10014400178966	Heart_Atrial_Appendage	0.00794064897908803
rs2164068	False	ENSG00000115896	17.6198747380242	Whole_Blood	2.39952490545111e-18
rs2030519	False	ENSG00000145012	1.49473857195158	Artery_Aorta	0.0320082129732437
rs2030519	True	ENSG00000224563	0.655285394375098	Testis	0.221164086359669
rs11256017	True	ENSG00000223808	0.373869561148626	Skin_Sun_Exposed_Lower_leg	0.422795580393651
rs11256017	False	ENSG00000234752	0.110247598201458	Testis	0.77580469191232
rs17294280	True	ENSG00000166949	7.92001378443241	Thyroid	1.20222627555594e-08
rs7824993	False	ENSG00000205189	2.86476022125919	Testis	0.00136533674590541
rs7824993	False	ENSG00000213791	0.490769455002093	Adipose_Subcutaneous	0.323020842110083
rs7824993	False	ENSG00000241746	0.0732777317218067	Testis	0.844738461365438
rs7824993	False	ENSG00000251867	1.90369128904838	Artery_Aorta	0.0124827051111803
rs7824993	False	ENSG00000253238	1.34532020967913	Testis	0.045152290924346
rs9282864	True	ENSG00000196502	13.93935583955	Esophagus_Mucosa	1.14985786585665e-14
rs9687749	False	ENSG00000113522	2.11838774353375	Stomach	0.00761398920015561
rs9687749	False	ENSG00000169194	2.09326846812783	Testis	0.00806736175402406
rs9687749	True	ENSG00000223442	2.80747372733488	Small_Intestine_Terminal_Ileum	0.00155785227432772
rs61977073	False	ENSG00000139865	1.5292488641614	Lung	0.0295631791954156
rs6470578	False	ENSG00000249859	3.37831132066223	Thyroid	0.000418493463744312
rs3787184	True	ENSG00000101096	2.59038882771861	Brain_Nucleus_accumbens_basal_ganglia	0.0025680955144049
rs7717955	False	ENSG00000152611	1.1767655772785	Brain_Cortex	0.0665632353125701
rs7717955	True	ENSG00000168685	1.525720511943	Small_Intestine_Terminal_Ileum	0.0298043385579411
rs7717955	False	ENSG00000248349	0.359634586138861	Pituitary	0.436883269696344
rs63406760	False	ENSG00000051825	22.9050308015126	Testis	1.24442635006244e-23
rs63406760	False	ENSG00000111328	30.11767328583	Cells_Transformed_fibroblasts	7.62652527990971e-31
rs63406760	True	ENSG00000130921	6.049446576705	Nerve_Tibial	8.92387386910418e-07
rs63406760	False	ENSG00000269980	2.58843865364519	Skin_Sun_Exposed_Lower_leg	0.00257965332814495
rs1504215	True	ENSG00000112182	2.15156258337304	Skin_Sun_Exposed_Lower_leg	0.00705403185628692
rs28361986	False	ENSG00000160683	0.863072220897666	Whole_Blood	0.137065381466141
rs28361986	False	ENSG00000245869	1.93383056567019	Artery_Tibial	0.0116458028660857
rs28361986	False	ENSG00000254621	0.391921929618028	Testis	0.405581437714572
rs2070902	False	ENSG00000158864	3.68862850834273	Cells_Transformed_fibroblasts	0.000204819589625958
rs2070902	True	ENSG00000158869	13.9625833034758	Whole_Blood	1.08997540050857e-14
rs2070902	False	ENSG00000158874	1.8956693674883	Skin_Sun_Exposed_Lower_leg	0.0127154177363687
rs111371454	False	ENSG00000062524	3.22494336599485	Artery_Tibial	0.000595739825687053
rs111371454	True	ENSG00000137815	5.99703155902184	Thyroid	1.00685850047119e-06
rs111371454	False	ENSG00000137825	3.4889289095867	Muscle_Skeletal	0.00032439271340667
rs12509403	True	ENSG00000109320	3.15654477096065	Testis	0.000697357103366896
rs9648346	False	ENSG00000153814	2.31988784200446	Esophagus_Muscularis	0.00478753716099581
rs35350651	True	ENSG00000204842	1.40179906755141	Skin_Not_Sun_Exposed_Suprapubic	0.0396461420279771
rs62257549	True	ENSG00000145041	2.18401971982859	Skin_Not_Sun_Exposed_Suprapubic	0.00654606449950108
rs11677002	True	ENSG00000075426	2.2062909912084	Whole_Blood	0.00621883463710334
rs11677002	False	ENSG00000229951	3.96796401800794	Esophagus_Mucosa	0.000107655440418829
rs2815765	False	ENSG00000227207	23.2296366914646	Nerve_Tibial	5.89336457917225e-24
rs11671925	True	ENSG00000130876	3.58065810667057	Testis	0.000262628524259736
rs11671925	False	ENSG00000267714	0.861059509648703	Brain_Caudate_basal_ganglia	0.13770207682767
rs2461475	False	ENSG00000122971	17.3149572758915	Thyroid	4.84220000817202e-18
rs2461475	False	ENSG00000157837	11.0323590575127	Nerve_Tibial	9.28198671489703e-12
rs2461475	True	ENSG00000213137	0.254673390209701	Esophagus_Mucosa	0.556322480549331
rs2461475	False	ENSG00000255946	1.98464556785252	Thyroid	0.0103598730155323
rs6738964	True	ENSG00000123977	4.1705316157274	Artery_Aorta	6.75255894992873e-05
rs6738964	False	ENSG00000183514	1.17156763833785	Testis	0.0673646971480769
rs10519067	False	ENSG00000069667	2.23955780566836	Esophagus_Muscularis	0.0057602614295456
rs10519067	True	ENSG00000259591	1.05763900353732	Skin_Sun_Exposed_Lower_leg	0.0875711386042677
rs138050288	False	ENSG00000142599	21.6980790357374	Adipose_Subcutaneous	2.00410727368607e-22
